{
  "badges": [
    {
      "nombre": "Richard",
      "apellido": "Kaufman",
      "email": "richardbkaufman@gmail.com",
      "jobTitle": "Frontend Engineer",
      "twitter": "sparragus",
      "id": "DbY1vXd"
    },
    {
      "nombre": "LOpe",
      "apellido": "Ramirez",
      "edad": "23",
      "email": "fabiiramirez61@gmail.com",
      "id": "GNtz0KC"
    },
    {
      "nombre": "matias",
      "apellido": "greco",
      "edad": "25",
      "email": "matiasdgreco@gmail.com",
      "id": "SUT9zzT"
    }
  ]
}